Vivado/GEMM_accelerator.sim/sim_1/behav/xsim/tb_top_dump.vcd
$date
   Sun Jan 14 11:11:11 2024
$end
$version
  2019.2
$end
$timescale
  1ps
$end
$scope module tb_top $end
$scope module dut $end
$var wire 1 ! clk $end
$var wire 1 " rst $end
$var wire 1 # start $end
$var wire 50 $ w_valid [49:0] $end
$var wire 400 % wdata [49:0] $end
$var wire 50 & if_valid [49:0] $end
$var wire 400 ' if_data [49:0] $end
$var wire 1 ( instr_valid $end
$var wire 2 ) instr [1:0] $end
$var reg 1 * ready $end
$var reg 50 + read_out [49:0] $end
$var reg 1200 , o_data [49:0] $end
$var reg 1 - w_read $end
$var reg 1 . if_read $end
$var reg 1 / w_done $end
$var reg 1 0 if_done $end
$var reg 1 1 clr_w $end
$var reg 1 2 clr_if $end
$var reg 1 3 switch $end
$var reg 1 4 rd_nxt_inst $end
$var reg 1 5 first $end
$var reg 1 6 last $end
$upscope $end
$upscope $end
$enddefinitions $end
#0
$dumpvars
0!
1"
0#
bx $
bx %
bx &
bx '
x(
bx )
0*
bx +
bx ,
0-
0.
x/
x0
01
02
03
x4
x5
x6
$end
#5000
1!
0"
1*
b0 +
bx ,
0-
0.
01
02
03
04
#10000
0!
#15000
1!
b11111111111111111111111111111111111111111111111111 $
b111001110111110110011111011101010100100001111101111000010111001000110101001000111001001111010110010010001011111111011110010111101101100011010101111101111110101111100111000010100110011011101110111011101110110110000100111110000001110101111011011010111111011011001110000010011000111000100110101011010110000001101000101010010101110000101101101111100000010000000100001110101110100101011000001010011000010 %
bx ,
#20000
0!
#25000
1!
b1000110101010101000010011011001000011111101111111011100111011011001101100100101011111001010001001000100001101111111000011111001011000001100010100110001010010110101011010101011110010000001010111101110100001011000001101000001001111010100001000010010101011011100100011000000101011100000111111111001110100100111111100111001010001110101110000010000010000000000101010100011001010010000011101010001111011010 %
bx ,
#30000
0!
#35000
1!
b10111000000111101000110111011111011111100110110011011110110111001010000000011101000000001010000111001100110000011101111111111110010100000100001011000101110100100111000110011101001110001000000111010001001010001001100111110011110011000000111111101011111000010101110010001010000010111110111010110011010111011101100101110001110110101010101000010101001111011000011100101111010111001001110100100110111001 %
bx ,
#40000
0!
#45000
1!
b111100000111010100000100001111010101111000011110011011101011010100010110111001011100110010101011000010011000101011100110011011011101110001000011110000101001110110101110101001001010100100111110100101010001111111110100011011100000111110001011010010100010011100010000011010110010010111101000011110101110000100000011001001111111000001000010111001110101001011110000101111100100000010011101010100100010100 %
bx ,
#50000
0!
#55000
1!
b1000100100101010101101100000110011000101011111110101110101111101011001010011011110101110010001110001101000100110110011110001110100011101100010000111100011111100000010000100011010100101001000011000000000110010010101111110011111000110011100111100100110011000011010111110010000011110001011100000011111100101011110100011110111011101001110011011001111001010000010000100000110001010000100110011000101110010 %
bx ,
#60000
0!
#65000
1!
b100000011110101000100000001100011010011001111000110000100101000001000101101010010110110101010110001101010001101011100010111011110111010001010010011100110100011110100100100100000111101000101110101011111110001011001011011101111110001010011001011001010011100000000000001100100001001010101010100101110011000100100111010101111001110011100001100001010100000110010100010001011101001001011101010011010011111 %
bx ,
#70000
0!
#75000
1!
b1011011010011100011111000100101001110111000010010010001101101100001001010111001100100111000010111110010010110000010001010001101010001110011101111100010111001010001000011100111001010100110001000101010111110111011101100101110101111001010111010100111011111000011111100001100000001111100000011101111100110101111010001111110100111001110110101001100011100010111111000000111001100100010101101101110110001010 %
bx ,
#80000
0!
#85000
1!
b111111010100110001100011101101011011000001101110101100110100011110011011111100110000001001101010110101001011111001000101001100010001111001000100001001111010001110100000000000010000101101111100101001000010011010011000001001010101110011100100111001001000000011001011101100110100000011011100000110110011000101000001111011111001100000001111100111000010110110011001001100000101001101101010011101100110101 %
bx ,
#90000
0!
#95000
1!
b1110110100010111010111011111001111001000001001001101100011111010010011110011100100011011110011101101010110011110110111101000000101100100011111011110111101010100001110100110000110010001000100000100001110001110110000100010100100011110000000110100111000011001011011111011111111011011000001011001010010001111001111100110101000101011010011001100011100101001011001001111000110100011000000011110100011010101 %
bx ,
#100000
0!
#105000
1!
b1000011001100010000010011100111001111011100001101100110010111000111001111000001100000001110000111001111101001001101101100010001111100100101110000000110101111011011001011111111000010110011010000101001000001110011001011111110110101100000010000000001101010101011000100101110111111001010101101010010110100110010111000000110010110111010100111111101010011001111011110000100100010001000111100110010011110001 %
bx ,
#110000
0!
#115000
1!
b1000100011010001101001010010000010010110100100110100110001101000001110110001001011010011001011100101100000111010100101000000110110111010100110011001100101001011100000001111101101110011011011110001100010011110110101110001000111100011110101011001011100000111101110110000001001111010110111000001101010010101100011011101111111100111111001000100111100111011101011101010100010010000101011000011011010100110 %
bx ,
#120000
0!
#125000
1!
b1010101100000010011100101110100100000000001101000011010011000010000000010011110110110101001111100011001111110111000011011100001100001010101111100011000101110000111011000100111110010001100110101101000111100010110111100101001001111101101011111011110001111111011001010010111110010110111111100100101010001100111010010110011111100101000010010001010011100011101001111110000001010010000000100110001000110100 %
bx ,
#130000
0!
#135000
1!
b1001000010100100011111010001111001110010101111101011011101110010001100101011111101100111111111111000101111110111000010110011001100110100011011111111010001011000110000111001110000111111110110111010110001011000000110011110100011110000111001111100001011000100011010000011001000100110001011000111111110001111100111100011110010110011100101101000111001000011110111000000011110101110011100001011101010000110 %
bx ,
#140000
0!
#145000
1!
b1001010101101011010011010010011111011011010011110011100101101101100100001111111011101110011011101011111100111011011111110010001000111111101100101110111010011101111111001100110100110011101000101011011000100001011010010101101000010111000100100011100001011011000010100101011100100010101110110000011111100001001110010100111101010000010000011000001010111000100100011111100011001101100101111011000010001001 %
bx ,
#150000
0!
#155000
1!
b1110101111111001010010000100001110101100101101100100000110101000010011011001001000000010000001000110100110101111101001010100100100101001010100110101111000011111100001100101001011101011000010011100110100001100001101000111110010000100110111101101010101010001100010000101011010100111001100110101011001111111101010010101010011111111001010001000101000000010011111111000000111001010111111011010100100001001 %
bx ,
#160000
0!
#165000
1!
b11011110000010110110001100000111000110001001110011000101110110101111001011000110010000010100000110101110000000111001010110110001000110000100000110101011111111001110101101010100000001010001111101011010010101111111011111001111111110011011000100100111100011100101111001000110101001000110111101010110111000001110100111110010111100111100011110000101011001111110110100100010011011011000111111011010011000 %
bx ,
#170000
0!
#175000
1!
b1011111010011000010100100000001010100101010111100100011010111011111100101111010010111100111010100110101101010001111111110000100010001001011010111110101101100011110010001001010000011101001001101010001001010111010001011010001011110001110001101110000000000000011001010111111111000010111100010110000101100001001111100111010000011110011000001011001111101101010000111101110111000000001100010001110111010110 %
bx ,
#180000
0!
#185000
1!
b10110000010010110000001110101000000100000010100001010101000010000011101011011011010101110000101111110001011111011011010100101110111001011101010101010110110001101001101111011111110110000010001100111101011110101110111001110100101000100110000100110100110010001101100010001101010000111101100110001000101010111000100100000011000001001001010001010000100010011010011011110000101100100111111011110001010111 %
bx ,
#190000
0!
#195000
1!
b1111011011001010000000001101010010101001111100010101011100100001001000010000111101111101100001111101000001001000101001001001101000111111001101011110001100110110000010010110111010110110000010010010110001110101011111110000000001000010010000011000100100101100001100110011111001110110000101010000111001001011101101100001110100101111001010110101111111110001000111001000101110111110001111100000111111010100 %
bx ,
#200000
0!
#205000
1!
b11001111011101011111001110100100001011001100010101100001001001110100100100101010010001110000100101111100001110101110000001000011101011100000110000100101001111001000110011010100000110100110110110000011010100010010011000011111010101001100100101001011011000111111100001011000110101111111010011010000111100101000110000000111100010111110010101100100110010010110011010101010101000101100001001111110101111 %
bx ,
#210000
0!
#215000
1!
b1000101010101001000010111111100100100101111101101010010010010001100001000001010101010101100101000111001010001111001111001111000010100011110001100101011110000010111011000111011010011000001000011101101011100001111010011100101110011100101101110011011100001111010001000011001010010011100011010111001100000101011110111011011110111111100011100001001010111100010001101110110110100101000000110100011100100100 %
bx ,
#220000
0!
#225000
1!
b1011101000011101001101000000011101100000001000111111010010110010101111010001000000010010101011010110011011100100101000000001011110101001001011100000110101010111001110110111101000001010010110011111001010010011010011001110000110000111011111110000110100010001000010111101010111010100011101100110101100111111010001001001110101101010100111010011000111010101110101001010011101101011100111001100100010001 %
bx ,
#230000
0!
#235000
1!
b100110001000111111110111101110000100110010100100001011001110000001000001010100011000101101101100011001001101110101010110110101001110110010101110000101111000111111101110101001101011111101011110110000010110111011010000100100011110011101010000100011100010111110001001100000000000001110111001110010010000111000101101110100011011100011110101100011011111100101010111001101100100010111000001100111100101010 %
bx ,
#240000
0!
#245000
1!
b1101101011001011110011001111011100000110000001000101111011100010110001011100011110011001001000110011111110010111010010011010000110001000000000101101101010011110000011110100011111000111111010101111001110010010110101100010010101010100001101010001001111001110001111101010000100010001100001101111011101110010101111001011011110101010100111111100101000111111110001110001110111101101011010111101100010101101 %
bx ,
#250000
0!
#255000
1!
b101001001011100010001010100000000011001011110110110100000010001010000111100100111011000000001110011100010011110001110010011110010010001001110101100111011111100000011011111111101101101100101010010110111001111100011100111011111010010100111100000011110110101111111011111000001110000000111001010000000010110010001011110000101010000010110101101011110111111110001101110101100001001100100001001001111101100 %
bx ,
#260000
0!
#265000
1!
b1011011000110110010101110001110111011010010111011001010110011001010110111111101010001000010000010000001010011011000100010001101011111000111011010011000011101000101000110010010011101001000100000100101000001100111111101001001111011010110111010001000110110111001100100010000110000001001000111010101011110000001101010000111101110111100100011110110110011011011110011010010000100010110111000001100001001001 %
bx ,
#270000
0!
#275000
1!
b111100110011101100010111101100001100011011110111011111010100000001110100001000000011010110000100100000110101110100001100111011111001110011011000011110011001010110111110001100100111011000001001000110100100011100011111101101110001100000110000111010110110010100101100111011101100101110110101000000111111110010011001011110011110101011001111000111011000101000010011110010100101110001100000101111010101000 %
bx ,
#280000
0!
#285000
1!
b1001011111011001100001111000010110011000100001010010000100010010010000000000001001100100100001100100010000011110101011011011101010111110010001101101100110001010011000000110011111100001001100111110010101110001101010010010110110000010011011111000101010111000111011110011101010100011110010011000000001010000000101010010011010111010010100111011010001011010100101101100001001110010011000001011110111110001 %
bx ,
#290000
0!
#295000
1!
b1110100000110110000001011000000001111000100001111110110001100111101111100111111010010100000100001100100101101101110100111010110110110101001001110011110100011011101110001010110001110000100110100110111110010001101010110001111000111101110111101110111001010001010101001100110100101111111011001000101000100001001000010110100001000011000011101100101000100001110111100001001110011110001000010010111110110111 %
bx ,
#300000
0!
#305000
1!
b1000001110111101111001001110011110011110011100101101001110011100000111110111000100010100000000010101001101100001100010000001110100011110101100100111100100110110010000111101011010100100111010000110111110100011100100010101101101100111000000010101011000010011001111001001000000000101010100111100010111000110000011101110100011001010001111100100010111011101111111001101000010100011111011010100001001110101 %
bx ,
#310000
0!
#315000
1!
b11100100001110100011010010111010110100001101001110011100001011010110100101100101000111101010011101100110001110110001001011000110000000101110011110010100101000000011100000101111001100010110001010101111011010010110111011011001100000111100101111110011110101011110100110100110111001011010110111100010010011001110110000111111110000001001100010111101101001101000110001010111011111100001111000001100011010 %
bx ,
#320000
0!
#325000
1!
b1000101000011100100100101100010111111101011001111000011111000100000111110010101100111110001110000100100001011100100001101110011011100011111000101011001001100001011110001010010000110100100000100110100100001101001011011111011000111011001001110101010101110011110100100000011010100001110010000101010001001111110100010000101010110001010100101111011001001010100111010111111100010100011001111011010101110111 %
bx ,
#330000
0!
#335000
1!
b11011000110110110010101001110000110001011111111010110110011001000001000100101111101111100110000111101001100010101010100110110011010000100011001110110100001110100100100001111001111111110000101111101011001111100011111100111100100011101011110011001100101011101011001101111110011100111110000000001101010100100011111011001111011100010010000110100101010000011110000100011101001010100011001101000000100010 %
bx ,
#340000
0!
#345000
1!
b11011101100011101110010011110000110111001001010101111011110011001101001001101111100101001110111111000011000011000101011111000010101011000110100010110111111000000111111111101111001010101010110000001000110010001101010111010011111001100110000111110110010101001110001001010011110111011011000110011111101000100111011101010000110101000011101100111010010011101110111001011100000101100110010101001100111 %
bx ,
#350000
0!
#355000
1!
b1111001011000011010001110111100111000001011001110010000001111001000000101110000001011001010010000110010100111111001000001011100101111011000110010010100010101011110001000000011010010001110100000101010100100010000110101111010010110001011011111011010101100001011100011010101100111110010011111111111000001010001000110010000110101101001101000010110011011100010111001110111011110101110100011101100000111110 %
bx ,
#360000
0!
#365000
1!
b1110011110001011000101101011011111101001010011000010011100110000101000101100101010001111101110011010101001011101101000011110100100011111001100100001100011000001001111100110111111010001010111101111010010101001111100001110000001111011001010000110110100010100001011101100100001110010011001111111101010100101101000011100011111001110110011011100010100110011110101101101010000000001100110111111011111110001 %
bx ,
#370000
0!
#375000
1!
b11000100111011110111010001000001101010101111000001010000100001110100010010000111111011010010001110101111110011001001101000100000110110000010000010001001100010101111010001111001100110110100110100101000000100111111001110101011010011011000011101011101100000001100011001101100010011011100110011000000111100010011011011111001101010110101110010010101110010110100010111011010011000111110000000010110101111 %
bx ,
#380000
0!
#385000
1!
b1101101011011001011100011110100100011110001011000011111011110000101110110100010110101011001011010111000011111001010001011000111011010100101100101110100011100010001001001001001010100101111100101000111001010110001111010011001000000100010011111011010101011011010100011110110101111101101010011111111011000111110111101010100011101111101101101100101101010101110110000010100011011101100110101101111010100011 %
bx ,
#390000
0!
#395000
1!
b111100000111110010010100011101000100010101000000101100100111101000111001010101011100001111001001000010010101111010111000011011100100110001100101000100001001100100010010010100110101111110110011010100101011111100111011010111110000000010100000011110011111010110111110100110101110011100001100111000111101110100001100101100111011100100001011111111100011000000100100000000101011001110001000111001111111110 %
bx ,
#400000
0!
#405000
1!
b1011111001001101100011100101101100000110001001010110111101100011010001110110100111101100101000111101111000000110011101111010010010001011111001010010110000111001011110111001000101111000010100010110101010011010110000010010101000100111110111101001000001000000011100111110001110011001111001110110101110101101101001101000101101111000111011000100000111011111001101011011101001001010100110001011011010000110 %
bx ,
#410000
0!
#415000
1!
b1001010110011101000001001100010000000011000110011000001011010001100110011110101001000001001100101000000010011000100011110110011101101010101010011010001100011001001011011110011011000100010100010111110010111101010101011101110001101010000001111111110010100000010100110100111011011111110010101011010010101110110000001000100110011010001100010000100100101011000101001000111101111111011011110001110001111010 %
bx ,
#420000
0!
#425000
1!
b1010101110100101011100110000010111000011011101110000011110100110111000101111110011111110000111011001010100001011101001111100010001100111111100110111011011010000101001001011010001001110100101100100111111000010100000100000110101100100100011000001010001000010010111011111010111111001001000100010111100011111010010010011101111000110110110101101100111110100010110000110111101100001110100101000000101101010 %
bx ,
#430000
0!
#435000
1!
b1001001010000110111011011111011101000000111110110111110110011011010001101111001001111010101001001011010110001011001000011010000100111100111011111000001100010100010011100011001000011110001010001010000001010000111101010010011010010010110011100011001101111010101111100010011111110011000101110000111100001011100001111010011100011000111001111001000001101000111100111010000000010111101011111111010011110000 %
bx ,
#440000
0!
#445000
1!
b101000101000100101011000010011101011110101100000100010000101010111001101111110011100011001100111100101001001000010001111011001000110010100110111110110000010111000101101010110011000110000110101000010100111111010100011111101100100111100001111100100110001001000110001100101000110010100111100110111111111111010101110111101001011011001100100100011011110101101001000010010100110011011001101000111000100001 %
bx ,
#450000
0!
#455000
1!
b1100000100111110100101110001001010100100010011111000101010101111100110100100011110000111111101011011010101000011001010001010010110010010010001001100110100010000101100011110001111011000100000011001001111101001001110000010111101010000111011100100100101100100100110010100101011100110111011000101010111111111011111011010110111110101111001110110111010100111000010101001011000111111010011011101110111011000 %
bx ,
#460000
0!
#465000
1!
b110100010111100101110000110011011100101001000010010000000000010110101111001011101000110111000110100100110001000101110111111010001001110101111100010011101010101001110101111110111001101111110011000001100101010100010000100000101111010101000110111000101000010101100001110010111010000001110001111001110001100011100010111100011110010010001001100011001111011100110100010110110110001011101111010101010011001 %
bx ,
#470000
0!
#475000
1!
b1100100100100011100000100001100010101101100001110001011110110001011101011111101100000001111111000001001000011100101100000111100111101001111001010100101110011000001100111100101100101110010100001011001010000000011010101110001000011001101011101110011011001111011001101011110011111100010010100100011100101001110100110001110001110101110100110111011100101011101101000000000010100101010010100001111001110111 %
bx ,
#480000
0!
#485000
1!
b1000010101101010111000010010111011000100101101001001010101010111101001100010110110011001011011010000111001101000101111100011100000011111001100011010111111010101010010001000110110001001010010101110100000100010010011001111111010100100011001101111110111101010011111101110011000000001101110101110100000010111111010011100001111111101111010011101000100100101000110101111111111110010110110001100111111010010 %
bx ,
#490000
0!
#495000
1!
b11001101000001001100000010000010100101100011101010001000010011100111001010001001111110100100101111001000000000100101010000100110110000011111101111110111101000010100000001011100001100110001110010111011100110110111001000100011101001001001011110101110100101111111011011011110011101010000110010100000110100000010001011101010001111011010010011101101101110101001011001111001111110001000011100010010011101 %
bx ,
#500000
0!
#505000
1!
b1110111110000100110110101110000100110001010000001100001100001110010100101001100100011110001000111110111000101001111011110010111110101011111101010011010010111111011111101111101011111011111011000111011100111001110001001001000110000011110000010010100011100101101101100000001001101001100111100000101100100110011111000001100011110111010000110010000111110011001011110011100111110110000000110001010011101000 %
#510000
0!
#515000
1!
b0 $
#520000
0!
#525000
1!
b11111111111111111111111111111111111111111111111111 &
b1001101010111000101100000000100001100001010011010001000010010010010101110010001100110111110011110011010111101101100110101000100000101101000010100111010001101101110000000101000001010011111111110100100111100100000110100000000100000110101011111110010101001000110111011010101001011011101111011001001001111011001011010101111111011000001000001001000001110010011000110000110011001111101001011011110101 '
#530000
0!
#535000
1!
b1010000110000001101111100101010010011110101000001101001101001101111000110001110110000000010100011011110110110110110011001001001001100000110010101000010000101010010101010000001000001110001101100111010110000010000111000001111110001101100010110001100101010101111101011001000100000110001101111001011010001000010011111011111011111011011111011110100011011000100011011101001011010110001000111111000000010110 '
#540000
0!
#545000
1!
b1111010100011000111110100111110000011100101100011010000101111001111110110100100011011011101000111011011001011000100111100101100010010010100000100000010101011110110001100001101101010010001101001011110011101010000010111001000101011111011010000010100100101011100010111010001101101000001101001101110110000110110000100101011111000101111000100111000110000110110000001110000011100101001111110010001010010001 '
#550000
0!
#555000
1!
b101011001011111101010010011010010011111010010001110101000100010101111110110000101001010011111011000100110001001110101110100001011011000110000011010011001000111101100010001011010011100100100010001000010010000101010110010000000000101000011001110011011110000100010101001111100111010000101011000000101000111101101100111010100011101111100110101111000001100001010011100001100010111000100011100100110011011 '
#560000
0!
#565000
1!
b11101000001010110011010111110010000001000011000001001011000101100010011100000101101001101110111000001001001001010110111100111001000111000110000110011110110100000010100100001101101110100100110001011000100100010011010111111100101101010010100100110110011110111101101111101100110001100101100101101101001010011011010110000010100111111001110010000011110010101010101000111001000111101101010011110010011 '
#570000
0!
#575000
1!
b101111111101111001111101101110010010011101101101110111010000011010111001000011111101110000100000101101001100110100101010100101100101101100001110111101100001111001110010000110111010000000111100100111001101110001111110001101110111111011000101101111100110010101011101101110100111100100011011011001100000010111101100010000100101001001110101001011110010010110110001011101110001010100101110110001011011011 '
#580000
0!
#585000
1!
b100101011001100000010011100011100000101010010011101010010000011110001111100000011110010100000101000001000010100100100000100010000111101110111101111001000111110110101111011001001010010111111110000011100111111111010111101011110101011000100110001010000101111100101001101100011000011011111000111111100111011011011000001100001011001100010000001000001100111111000101110010000001000111100101010011000101100 '
#590000
0!
#595000
1!
b1111101001010101010011011111111101100111011001001000111111111011111011101110100001110000011011000111011010100110100010111000001001110010110010011110000011110100001101001100001010100001011111011001010100011110010100111011011100101101100000110010101011011110111100011101000010001100010011111001000101011010010100011010001000111110001100101111110111101111000111000001111110100101010011110001011011011110 '
#600000
0!
#605000
1!
b100010111000110101111001010110001110111001100110111101010011001010011111000100100110001110111101110010011110001011010000111000110100101010000000111011001110011010011000010100011111011001100101111001101001110011110000001101000110100101011011011101011011001000110011100101101100000010110111001001111101111011110001011111000110111011100011110001111010101101101110000011111011011011000101011101011011100 '
#610000
0!
#615000
1!
b1101010011101111101111101000101011001011100011000010011101001001001001000011000101100011100000010110100011110101111001101010001011001001011011101001101111000110001011000111100000000111000000110100000100100011101111110010100100110110111000110100010000011000111011011101101111100101000111101111011001101000001100101100111011100101011111011110110000101000100000111011010111100010101111011111100100110110 '
#620000
0!
#625000
1!
b1110110100111000000000000011011101001100100001111000111010110110111011000111100010101001100101011001101100010101000011010101011111011101100100111000100001000100001110000111101011001111100110010101101100001110011101011001111000011110110000010010010010111101111011111011010001111010011000011101000101110000010000111000111011100010000010010001111001000011100011100011100101101111100111110111101111100101 '
#630000
0!
#635000
1!
b111111101110101101010000001110111011001101110100011100001100010100111001110111011100100011101100001110101001010011111100010011011010001100110101111100011110111011110011110001100101101110110010010000100010101110010101001111111000010000110000000111110000010010100111011000110010000010000001100010101011110111100100001001111101100001100100100111010110010011100101100000011000101001110011100000010001110 '
#640000
0!
#645000
1!
b100101110011000110100111110101110001110001100001010001001100000000010101010001001001001001011100010011011111111000101101101110001111100010010100001011101001001100000111100110011000101001100111100011101001011100001000101000000000101011110101010111001110111010001010000101010100001100011100011010010100100110101011011011111010110111111011011100101111101110011101101100011111110010110000010111111100001 '
#650000
0!
#655000
1!
b100011111000101111110101011110110111101101110010101001110001010000010000100000101101010001100111011000100010010001000001101010110010000010110000001001111011100100000011100100011000010101101001101011001001011000110101100110111110001011101111001101000001001010110011010001100110010111010000001110111110111110101110111000110000101001110110001000110101100011100101001110001100000110110011100100101110101 '
#660000
0!
#665000
1!
b101110110110000111000010011001110111000111000011011001100101001111110001111111110000000100011101110100110110100101010010110101000010110110011001110010101111111100111011101110110000101100101110010111000000111111110100000011010101111011111011001110100101000010110000111110001101000100001100010010100100001110000001101001001010111010001111100011001010011110010010111100000001011000001000111111001001110 '
#670000
0!
#675000
1!
b10110001010111101101101111110000010110100010101000010100101111010000010010101101110111111001110100100101011001101110000101101011100010000111100010111111101111011101111001101000101011111100101010011010010101110001001000010111110011100101100010111000100001101000010010111001010111110100101111010011111111110010101100111100111010010101110000011100100101110001010111001111001000000101011001001010010100 '
#680000
0!
#685000
1!
b1001110000100100111101111001010101110100110000010000000100000110101010000011011010010100011101100001100011010010011100100011101000011101101110011111101111011110101111001011100001000110001111110000010101000011100110001000010110111010111110101010011010000111100010001010010111100111001110110111001000000000101000000101010100110011111001101001101100011100110101001100000110111010000101110001000111011 '
#690000
0!
#695000
1!
b1001011011110000000101000001010011101110000101101011111110000010000000101111110101010100011011000001010011000010001011011001010111101001100100100011111101111111110110011001101101010110011010101011100110100100001010000110111111100001101100100100000101001010110000100111011000101101100101111111000011001011000111010010101110000110011000100111101011000100010001011011101110110001110000010001110010111111 '
#700000
0!
#705000
1!
b101001101011001101111011100011010000100110100010110110010001101110101011110110001011010111101111111110010000000001100111101111011101111110110101100010000011110100100000101100100011010110100010100100101101011000001001011111100001111101011111100110010001010010110110101010111110011100001010101001101110111100101111101011000000010011111001110111001111101011101010001101111100111100001000000011111010011 '
#710000
0!
#715000
1!
b1000110001011001110110110101000110111000111000011001101000111010101000011111101010110111011111100100000010100000100000110010001110111001000101111111101100011101111001100110101100101000100111000011000110001111111101010100101000111010100110001010011011100110010101010101110110100100010101000100001101001001010000100000000100011001010110100001000101000010001100001110100011101111110101110010101000101001 '
#720000
0!
#725000
1!
b1100000111100110010011001100111011111110010010011100101111111010111011111111101100000011000000110110000111010000111111111110110010011001001100100000101101110101001101111100110111100001001010111111101001000101100101000000101111001011101000111001111111110110011100011110100001110011110111010011000110101111011110101001110010111110110011000110001010011100111100001011011000111010001000011101101110101 '
#730000
0!
#735000
1!
b1011100011010010111001000010001001000101010100100000111010010110100011011001001000010100101011111100010101111011100000011101110111001101100110010010111011100111101011101110100010101111111001101110101101000101001110001100100011111101011010101010111000100011010010001100111000011010110110100010001011100000000010010110110110101100001110101101000110110100001101001100111110011100111101110000011000000010 '
#740000
0!
#745000
1!
b1100001010100010011011010001111000100110100000110111101010100100011111001110101010100011100000010000011110010000000000011111101111100011000100111000000000001100101011011110111001111010110101110110010110010010100100011101011010001000111010000100010110001111000010101010100110010001111110011101111010011100111111100001000011001011111101011111101111001101110100000000100100010101111111100010010011110010 '
#750000
0!
#755000
1!
b1100011000001001011100111111110010001101011100110010010011001001100001000000000011011111110000111110111100100011111100011100000000010001101110111101001000101111000010100011110111110101111010101010100110011100001100010010011110001100010110011011100110001010000011111101111101101110000000100101000111100010001001000000110110001101100010111101111001000100010111001001100000110111010000010011011101000 '
#760000
0!
#765000
1!
b1110100011111011111101001010011010110001001000000110010101000010010010101101010001000001011011111101010110010001000000011101101111111110101011110110111011111010100100110101000101101101000001000001110000011100100011001000111000110101010100010111100010001110111001110011101100010110101001110110100100111100011101110100000011010010110110100010111100101001011010101001110100010001101010010110111110010010 '
#770000
0!
#775000
1!
b1011010101101111110100111101111101111001001001011000000011010110111101101010111001011111101000110010111111010010011101110101001001111110100011010010110011011101010100111110101000100110101000010011100101000010101101111011001010110000111000111110101010000111100100101101001111000111001010010101000100010111110000000110100110000010101100000110100111101000100101010000111100000000100110010001101101011001 '
#780000
0!
#785000
1!
b100110111101110010100101101111010001111111000101000101001101111010111110110111101010011000111111000001100011011000111000011111111101100001110000000001101000100001011111110001100111100101010000000100100100000000010001000011111011010000111001010000010000010010001101110110011100111010101111101011010110100100110111110111000010110001100111011110011100111100111100110100000110010001011101001010101010011 '
#790000
0!
#795000
1!
b1011001011010001111010000000010000110100000000100011100110101101100111011110011011001011100001110110010101010011111000100001011010000001011110001010010001001111110100010110101001110001001100101010011000111010110111011001111111000100001101110101010100000111011101101010011001001010101111001100000110101111101111011011100111100100100110111111111100001000110010100010001010111010110111001101000011011100 '
#800000
0!
#805000
1!
b1110010110111000111111101111101101001100101110000000101111101010011010110100011011110000011000100100110011000101111110100000100111111001001010110110100001000011110010111100111110100000101101100101111110011001101000110001010101101111000001110001001101001010001010101001110000000010001001011101110101110111010001110000010010111111100010111101111011011000101110001011110000100110111001101101001100100010 '
#810000
0!
#815000
1!
b1101100100000110110100110111011001010100010010000111111101100011101100011000101111110111111100011001011011110011011011001100000011110101000000111000010111010110111111100110100000111010000111100000010100011101100111001110000001100011000111011000001000100101101110010111111001011101001111100110010000000100110001110111101100011010010110010111011111101001111010010110111000000100001100010111000000001001 '
#820000
0!
#825000
1!
b111110101101011000110001011110010100000010110101010111111000001110010111011111000001101110111101000111011110001101101001110110100101111000111000010101010100001110000011001100011000011100011100101101010010001110111100011001100111110001100011010111100100111010100111010110110000100000101111101111000000010101000110011110011001111100000010111010010100001001100110010000111001000001011010100111001010010 '
#830000
0!
#835000
1!
b1010100101101010011100000100011101110001010100110001010101100001111110010001110100110010000011110101101011111000001011111110101011000011001110011110000001110000001101011111011000001010010100110000010011101010011001101110001011110010001000001110110100100001111110000100011011110101110100000010100010100111001011000010011100011110010011101010010000000000100010011101110110000011000111011100010111000111 '
#840000
0!
#845000
1!
b1011110011001010101011110011100111101011101101001101110110000011110111111111101101011100011010001101010111100010001001100111011100100101011110100100000101011110101111001010110000110101110001111011111010010101001010011111010111101110101000001001111011001000101001111000100101010111001001011111100000010101011100011000001010010000010000101011010001110110100001000010111011001101000110101011111010000110 '
#850000
0!
#855000
1!
b1111000000001000110000110111010011111001011000000001101001111100000011100110001101011010011111010101000110110111001000101001000100010001101000110101101011000000101001010111111100110111010100011111110111011011100010010101010010000010010111001100100010101001010110010010110110001011110110000000001110011011000111101000000000101010111100001011101010000010011100010010111011000110101001110111111010001100 '
#860000
0!
#865000
1!
b1111111011011100100111010111111110001101110001011011110101111111010011101101011111000010000011100111011111100101101111010100000001100000110111000101000000110110100001011110000111110000001010100101011101101111010001100101101110001001100000001110001111111100111001101100011001110111100011011001101000011101100001010101100100101011010110100000100001000001111100100010101101010001111010100110100011011101 '
#870000
0!
#875000
1!
b1000101000011110110011110011011111100111000010101100001101010010001101101100010101110100100101011101001111111110110111101010000111110001011101101011011100110010000011000110011111101010101111110110101001001111010001110100110111111101100110110111100000011101010100101010110011010101111000000100100111001011010010000111000101100011000010011001100011010111011010000011111011011001100011001010000101011010 '
#880000
0!
#885000
1!
b101101101100111001001111100001110101111100111110101000010010111101110001000100001110011000110001110011111000111001001001010000010100001101011001111010001000111001001100111100010101100010110101000011001111100100110111100101111110010001100001011111110111010100010100110101100001100001101111010011001010100101011100101001011000101101101111000100101010011100011111111011111001001011100010010100010010010 '
#890000
0!
#895000
1!
b1011000100011010111101111100111111010001101010111100111011100010010010010100110000000000111011110110000110000010111000010101101011101010011111100000110100000111100110000110001101001101111000111110011010101010101110101011010001111101101000110010100100110001001011000001011110001011010011000111011000010010101001101110000010100000011110001010010110010110011100100010111000111011000010100000011001110111 '
#900000
0!
#905000
1!
b110011110010010111111001110011001101000111100010101101010000001001010010000101110001100111001111100011101001111111101000100001001000011001111011111001110000101000010111011011101001111101111100011001000111100001101100100110110000101000100111000011111100100101101110010001111000110101000000101110001100100000111100001011011000111011000101000001001000101100111001011110010010100100000101100010111000101 '
#910000
0!
#915000
1!
b10100101111111101100111010010101000110011110110001000010000100001110010011011110010101110000100100001011011000111011100111011011110101101111011101010011001100111000110011000110100010001010011101100110100010001010011011101001011000000000001111111100011111010010100010100110111011001110011011010111010110011001000001000101110100111001011101010110100100011000100111111100111100110100001000001101010110 '
#920000
0!
#925000
1!
b1111010110110110011110111011010110101010010000110000010101111111110011000011100010110000011010100111011100001100110011111010000110000001011000111001101011010101100010110110101111000110111010111101100001101111000011101101111110010011100101111101110100111000110110110111011100000010010110101111110001100110001101100100000010111010100111000110010010111011111010111001101000011100001111101111000011 '
#930000
0!
#935000
1!
b1010010110100001110101100001011111000110010010001000111110001110110110111000110110001000001110000110110100000010000001101010001100100000100001100011001011001010111000101000000001110001010101011010010010110010010110011000110011011100101111111111110000010111110101101001101010010000110001001110100101100001100001110001000110110001001011110011110111010111101100000101100011010100110110100111111111100101 '
#940000
0!
