tb_controller_dump.vcd
$date
	Wed Nov 22 19:08:44 2023
$end
$version
	ModelSim Version 10.6d
$end
$timescale
	1ns
$end

$scope module tb_controller $end

$scope module DUT $end
$var wire 1 ! clk $end
$var wire 1 " rst $end
$var wire 1 # start $end
$var wire 1 $ w_done $end
$var wire 1 % if_done $end
$var reg 1 & w_read $end
$var reg 1 ' if_read $end
$var reg 1 ( clr_w $end
$var reg 1 ) clr_if $end
$var reg 1 * switch $end
$var reg 1 + ready $end
$var reg 1 , start_if $end
$var reg 1 - if_ready $end

$scope module w_controller_instance $end
$var parameter 2 . READY $end
$var parameter 2 / FETCH $end
$var parameter 2 0 WAIT $end
$var wire 1 ! clk $end
$var wire 1 " rst $end
$var wire 1 # start $end
$var wire 1 1 if_ready $end
$var wire 1 $ w_done $end
$var reg 1 2 start_if $end
$var reg 1 3 w_read $end
$var reg 1 4 switch $end
$var reg 1 5 clr_w $end
$var reg 1 6 ready $end
$var reg 2 7 ns [1:0] $end
$var reg 2 8 cs [1:0] $end
$upscope $end

$scope module if_controller_instance $end
$var parameter 1 9 READY $end
$var parameter 1 : BUSY $end
$var wire 1 ! clk $end
$var wire 1 " rst $end
$var wire 1 ; start_if $end
$var wire 1 % if_done $end
$var reg 1 < if_ready $end
$var reg 1 = if_read $end
$var reg 1 > clr_if $end
$var reg 1 ? cs $end
$var reg 1 @ ns $end

$scope begin blockName $end
$upscope $end
$upscope $end
$upscope $end
$upscope $end
$enddefinitions $end
#0
$dumpvars
x&
x'
x(
x)
x*
x+
x,
x-
x2
x3
x4
x5
x6
b0 7
bx 8
x<
x=
x>
x?
0@
b0 .
b1 /
b10 0
b0 9
b1 :
0%
0$
0#
1"
0!
x;
x1
$end
#5
1!
0"
1#
b0 8
0?
b1 7
#10
0!
#15
1!
0=
1<
02
13
04
06
15
1(
0+
0*
1&
0,
1-
0'
0;
11
b1 8
#20
0!
#25
1!
05
0(
#30
0!
#35
1!
#40
0!
#45
1!
#50
0!
#55
1!
#60
0!
#65
1!
1$
b0 7
#70
0!
#75
1!
12
03
14
16
x5
x(
1+
1*
0&
1,
0$
1;
1@
b1 7
b0 8
#80
0!
#85
1!
1=
0<
1>
02
13
04
06
15
1(
0+
0*
1&
0,
1)
0-
1'
0;
01
0@
b1 8
1?
1@
#90
0!
#95
1!
05
0>
0)
0(
#100
0!
#105
1!
#110
0!
#115
1!
#120
0!
#125
1!
#130
0!
#135
1!
1%
0@
#140
0!
#145
1!
0=
1<
x>
